…
Finished part one, let’s looking at our new pols-month.

``` r
pols_df
```

    ## # A tibble: 822 × 9
    ##     year month     gov_gop sen_gop rep_gop gov_dem sen_dem rep_dem president
    ##    <int> <chr>       <dbl>   <dbl>   <dbl>   <dbl>   <dbl>   <dbl> <chr>    
    ##  1  1947 January        23      51     253      23      45     198 dem      
    ##  2  1947 February       23      51     253      23      45     198 dem      
    ##  3  1947 March          23      51     253      23      45     198 dem      
    ##  4  1947 April          23      51     253      23      45     198 dem      
    ##  5  1947 May            23      51     253      23      45     198 dem      
    ##  6  1947 June           23      51     253      23      45     198 dem      
    ##  7  1947 July           23      51     253      23      45     198 dem      
    ##  8  1947 August         23      51     253      23      45     198 dem      
    ##  9  1947 September      23      51     253      23      45     198 dem      
    ## 10  1947 October        23      51     253      23      45     198 dem      
    ## # ℹ 812 more rows
…
I found “parse_date_time()” in lubridate package can both help me clean
the “ymd” and “mdy” into “y-m-d” type, and arrange and organize the
data, I don’t know is that always happens? but I’m feeling complicate in
using “skip” and something more like part one.

``` r
snp_df
```

    ## # A tibble: 787 × 4
    ##     year month   day close
    ##    <int> <int> <int> <dbl>
    ##  1  2015     7     1 2080.
    ##  2  2015     6     1 2063.
    ##  3  2015     5     1 2107.
    ##  4  2015     4     1 2086.
    ##  5  2015     3     2 2068.
    ##  6  2015     2     2 2104.
    ##  7  2015     1     2 1995.
    ##  8  2014    12     1 2059.
    ##  9  2014    11     3 2068.
    ## 10  2014    10     1 2018.
    ## # ℹ 777 more rows
